{
  "id": "loto",
  "name": "Leader of the Opposition",
  "department": "Cabinet Office",
  "type": "opposition",
  "active": {
      "1807-01-01": true
  },
  "holder": {
      "2019-03-25": "John Major",
      "2019-05-10": "Dafydd Llwyd" ,        
      "2019-05-31": "Nicholas Clack",
      "2019-06-11": "Martin O'Callaghan",
      "2019-08-03": "Peter Nordquist",
      "2019-11-08": "Derek Cloyd",
      "2020-02-07": "Dustin Crowe",
      "2020-02-10": "Looty Duŵr",
      "2020-07-02": "Arthur Haigh",
      "2020-07-11": "Alexander Lambton",
      "2021-01-09": "Charles A. Gladstone",
      "2021-03-06": "Marijn Hoyle",
      "2021-05-16": "George Herbert Vere",
      "2021-06-30": "Marijn Hoyle",
      "2021-07-06": "Alex Martin",
      "2021-09-09": "George Vere"
  }
}