{
  "img": "http://www.newdesignfile.com/postpic/2014/07/generic-user-icon-windows_352871.png",
  "name": "Martin O'Callaghan",
  "id": 109,
  "user": "",
  "party": {
    "2019-04-27T00:00:00": 3,
    "default": 0,
    "2019-04-08T00:00:00": 28,
    "2019-03-16T00:00:00": 18
  }
}