{
  "img": "https://media.gq.com/photos/600885ec4b004969fac44e70/1:1/w_2112,h_2112,c_limit/012021_GQ_Biden_Aviators_1.jpg",
  "name": "Stephen Percy",
  "id": 129,
  "user": "",
  "party": {
    "default": 0,
    "2020-06-12T00:00:00": 1,
    "2020-07-11T00:00:00": 6
  }
}