{
  "img": "http://www.newdesignfile.com/postpic/2014/07/generic-user-icon-windows_352871.png",
  "name": "Paul John",
  "id": 175,
  "user": "",
  "party": {
    "2019-04-27T00:00:00": 2,
    "default": 0,
    "2019-04-25T00:00:00": 5,
    "2019-03-16T00:00:00": 5,
    "2019-04-09T00:00:00": 2
  }
}