{
  "img": "https://upload.wikimedia.org/wikipedia/commons/thumb/1/15/YSJaganmohan_Reddy.jpg/220px-YSJaganmohan_Reddy.jpg",
  "name": "John Panda",
  "id": 178,
  "user": "",
  "party": {"default": 0}
}