{
  "img": "http://www.newdesignfile.com/postpic/2014/07/generic-user-icon-windows_352871.png",
  "name": "Hoobi (the Elder)",
  "id": 184,
  "user": "",
  "party": {
    "default": 0,
    "2019-03-29T00:00:00": 3
  }
}