{
  "img": "http://www.newdesignfile.com/postpic/2014/07/generic-user-icon-windows_352871.png",
  "name": "Aegon Targaryen",
  "id": 228,
  "user": "",
  "party": {
    "default": 0,
    "2019-09-22T00:00:00": 29
  }
}