{
  "img": "http://www.newdesignfile.com/postpic/2014/07/generic-user-icon-windows_352871.png",
  "name": "Jacob Howell",
  "id": 246,
  "user": "",
  "party": {
    "default": 0,
    "2019-08-30T00:00:00": 3
  }
}