{
  "img": "http://www.newdesignfile.com/postpic/2014/07/generic-user-icon-windows_352871.png",
  "name": "Angela Zieger",
  "id": 249,
  "user": "",
  "party": {
    "default": 0,
    "2019-11-09T00:00:00": 3
  }
}