{
  "img": "http://www.newdesignfile.com/postpic/2014/07/generic-user-icon-windows_352871.png",
  "name": "Sophia Guelders",
  "id": 253,
  "user": "",
  "party": {
    "default": 0,
    "2020-07-31T00:00:00": 3
  }
}