{
  "user": "captainoverend",
  "name": "Amber Anderson",
  "affiliation": {
    "2021-06-06": "indy",
    "2020-07-06": "con",
    "2020-07-26": "gaia",
    "2021-01-17": "crossbench",
    "2021-01-19": "lab",
    "2021-03-16": "empty"
  }
}