{
  "user": "Ashley",
  "name": "Ashley Kathleen Fletcher",
  "aliases": [
    "Ashley Fletcher",
    "Ashley K. Fletcher",
    "Ashley Kanan"
  ],
  "facesteal": {
    "desc": "Theresa May",
    "link": "https://upload.wikimedia.org/wikipedia/commons/thumb/f/f8/Theresa_May_%282016%29.jpg/800px-Theresa_May_%282016%29.jpg"
  },
  "affiliation": {
    "2019-03-16": "ukip",
    "2019-04-09": "con",
    "2019-04-25": "ukip",
    "2019-04-26": "indy",
    "2019-07-26": "lib",
    "2019-08-26": "lab",
    "2019-11-06": "indy",
    "2020-06-03": "lib",
    "2020-08-17": "con",
    "2020-12-24": "empty"
  }
}