{
  "user": "kaiseremu",
  "name": "Ethan Matthew Upton",
  "aliases": [
    "Ethan M. Upton"
  ],
  "facesteal": {
    "desc": "Scott Benton",
    "link": "https://upload.wikimedia.org/wikipedia/commons/b/bb/Official_portrait_of_Scott_Benton_MP_crop_2.jpg"
  },
  "affiliation": {
    "2020-07-10": "indy",
    "2020-09-14": "upp",
    "2020-12-07": "con",
    "2020-12-12": "empty",
    "2021-05-14": "crossbench",
    "2021-06-27": "indy",
    "2021-08-04": "upp",
    "2021-09-08": "con",
    "2021-09-12": "indy"
  }
}