{
  "user": "Truthteller",
  "name": "Griff Johntyn",
  "affiliation": {
    "2021-08-05": "con",
    "2021-09-12": "indy"
  },
  "facesteal": {
    "desc": "1970s Ian Paisley",
    "link": "https://collectionimages.npg.org.uk/large/mw225968/Ian-Paisley.jpg"
  }
}