{
  "user": "MildredSimms",
  "name": "Horatio Craven",
  "facesteal": {
    "desc": "Johnny Mercer",
    "link": "https://upload.wikimedia.org/wikipedia/commons/e/e3/Official_portrait_of_Johnny_Mercer_%28cropped%29.jpg"
  },
  "affiliation": {
    "2021-08-24": "pirates"
  }
}