{
  "user": "Ishan",
  "name": "Ishan Rao",
  "facesteal": {
    "desc": "Anas Sarwar",
    "link": "https://upload.wikimedia.org/wikipedia/commons/6/66/Anas_Sarwar_MSP.jpg"
  },
  "affiliation": {
    "2021-03-26": "indy",
    "2021-05-08": "tory",
    "2021-07-02": "empty"
  }
}