{
  "user": "TruthTeller",
  "name": "Thomas Skinner",
  "aliases": [
    "Dennis Skinner"
  ],
  "affiliation": {
    "2020-05-09": "lab",
    "2020-06-03": "sdp",
    "2020-07-19": "empty"
  },
  "facesteal": {
    "desc": "Thomas Skinner",
    "link": "https://xombp.prv.cymru/facesteal/thomas_skinner.png"
  }
}