{
    "user": "Aurie",
    "name": "Victor Terence Utley",
    "aliases": [
        "Victor T. Utley",
        "Victor Utley"
    ],
    "facesteal": {
        "desc": "Ed Davey",
        "link": "https://upload.wikimedia.org/wikipedia/commons/d/d8/Official_portrait_of_Rt_Hon_Sir_Edward_Davey_MP_crop_2.jpg"
    },
    "affiliation":{
        "2021-08-27": "lib",
        "2021-09-11": "empty"
    }
}