{
  "user": "Zippy",
  "name": "Zachary Henderson",
  "aliases": [
    "Zach Henderson"
  ],
  "facesteal": {
    "desc": "Anthony Mangnall",
    "link": "https://upload.wikimedia.org/wikipedia/commons/d/da/Official_portrait_of_Anthony_Mangnall_MP_crop_2.jpg"
  },
  "affiliation": {
    "2019-04-21": "lib",
    "2019-11-02": "green",
    "2019-11-07" :"lib",
    "2020-07-09": "indy_progdem",
    "2021-01-03": "speaker",
    "2021-07-06": "crossbench",
    "2021-08-17": "lib",
    "2021-09-07": "crossbench"
  }
}