 {
  "user": "Zippy",
  "name": "Zohar Allison",
  "facesteal": {
    "desc": "Layla Moran",
    "link": "https://upload.wikimedia.org/wikipedia/commons/b/b3/Official_portrait_of_Layla_Moran_MP_crop_2.jpg"
  }
}