{
  "img": "http://www.newdesignfile.com/postpic/2014/07/generic-user-icon-windows_352871.png",
  "name": "Asratius",
  "id": 207,
  "user": "293475055332229120",
  "party": {
    "2019-04-27T00:00:00": 3,
    "default": 0,
    "2019-03-18T00:00:00": 3,
    "2019-04-08T00:00:00": 28
  }
}