{
  "id": "education",
  "name": "Education Secretary",
  "department": "Department for Education",
  "type": "government",
  "active": {
    "1992-04-10": true,
    "2021-05-16": false
  },
  "holder": {
    "2019-03-25": "Arfamis",
    "2019-06-11": "Boris Cromwell",
    "2019-08-02": "Vacant",
    "2019-08-28": "Bephen Stebb",
    "2019-09-22": "Thomas Daniels",
    "2019-11-02": "Vacant",
    "2019-11-13": "R. Wentworth Cook",
    "2020-06-05": "Kyng",
    "2020-07-11": "Charles Gladstone",
    "2020-07-27": "Alexander Helios",
    "2021-01-09": "David Doughty"
  }
}