{
  "id": "eu",
  "name": "EU Secretary",
  "department": "European Union Office",
  "type": "government",
  "active": {
      "2019-06-11": true,
      "2021-01-09": false
  },
  "holder": {
      "2019-06-11": "(name)",
      "2019-08-28": "Yuri Petrikov",
      "2020-06-05": "Alex Lambton",
      "2020-07-11": "John Newton",
      "2020-09-29": "Vacant",
      "2020-11-26": "Charles Gladstone"
  }
}