{
  "id": "scotland",
  "name": "Scotland Secretary",
  "department": "Scotland Secretary",
  "type": "government",
  "active": {
    "1926-07-15": true,
    "2021-05-16": false
  },
  "holder": {
    "2019-03-25": "Maisie Kelly",
    "2019-04-10": "(name)",
    "2019-04-28": "Vacant",
    "2019-06-11": "Bonnie Carmichael-Chow",
    "2019-08-28": "Bephen Stebb",
    "2020-07-11": "Angus McManus",
    "2020-08-11": "Angela Bradbury",
    "2020-11-14": "Vacant",
    "2020-11-26": "Llywelyn ap Iorwerth",
    "2021-01-09": "Colin Ray Jackson",
    "2021-03-07": "Dustin Crowe"
  }
}