{
  "img": "https://upload.wikimedia.org/wikipedia/commons/b/b3/Official_portrait_of_Layla_Moran_MP_crop_2.jpg",
  "name": "Zohar Allison",
  "id": 158,
  "user": "430465936265576479",
  "party": {"default": 0}
}