{
  "img": "https://upload.wikimedia.org/wikipedia/commons/8/83/Marianne_Williamson_Profile.jpg",
  "name": "Xanthe Orpheus Florence",
  "id": 110,
  "user": "186522191632924673",
  "party": {
    "default": 0,
    "2021-07-06T00:00:00": 33,
    "2020-06-03T00:00:00": 29,
    "2021-01-17T00:00:00": 29,
    "2021-08-05T00:00:00": 29,
    "2020-07-26T00:00:00": 9,
    "2021-08-16T00:00:00": 9
  }
}