{
  "name": "Abortion (Northern Ireland) Bill",
  "stages": {
    "0": {
      "date": "2019-04-28",
      "stage": "FIRST",
      "house": "COMMONS",
      "divisions": {},
      "status": "FINISHED"
    },
    "1": {
      "date": "2019-05-10",
      "stage": "SECOND",
      "house": "COMMONS",
      "divisions": {"0": {
        "votes": {
          "160": "ABSTENTION",
          "194": "IN_FAVOUR",
          "174": "DID_NOT_VOTE",
          "130": "DID_NOT_VOTE",
          "196": "IN_FAVOUR",
          "175": "AGAINST",
          "142": "ABSTENTION",
          "100": "AGAINST",
          "133": "ABSTENTION",
          "166": "DID_NOT_VOTE",
          "145": "AGAINST",
          "112": "IN_FAVOUR",
          "146": "AGAINST",
          "113": "IN_FAVOUR",
          "169": "ABSTENTION",
          "147": "IN_FAVOUR",
          "235": "IN_FAVOUR",
          "137": "IN_FAVOUR",
          "207": "DID_NOT_VOTE",
          "109": "IN_FAVOUR"
        },
        "title": "2nd Reading"
      }},
      "status": "FINISHED"
    },
    "2": {
      "date": "2019-05-18",
      "stage": "THIRD",
      "house": "COMMONS",
      "divisions": {
        "0": {
          "votes": {
            "160": "IN_FAVOUR",
            "194": "IN_FAVOUR",
            "174": "IN_FAVOUR",
            "196": "IN_FAVOUR",
            "175": "ABSTENTION",
            "142": "DID_NOT_VOTE",
            "100": "IN_FAVOUR",
            "133": "IN_FAVOUR",
            "166": "IN_FAVOUR",
            "145": "DID_NOT_VOTE",
            "112": "DID_NOT_VOTE",
            "146": "ABSTENTION",
            "113": "DID_NOT_VOTE",
            "169": "IN_FAVOUR",
            "147": "IN_FAVOUR",
            "235": "IN_FAVOUR",
            "137": "IN_FAVOUR",
            "207": "DID_NOT_VOTE",
            "109": "IN_FAVOUR"
          },
          "title": "Amendment A"
        },
        "1": {
          "votes": {
            "160": "IN_FAVOUR",
            "194": "IN_FAVOUR",
            "174": "DID_NOT_VOTE",
            "196": "IN_FAVOUR",
            "175": "DID_NOT_VOTE",
            "142": "IN_FAVOUR",
            "100": "IN_FAVOUR",
            "133": "IN_FAVOUR",
            "166": "IN_FAVOUR",
            "145": "IN_FAVOUR",
            "112": "IN_FAVOUR",
            "146": "DID_NOT_VOTE",
            "113": "IN_FAVOUR",
            "169": "IN_FAVOUR",
            "147": "IN_FAVOUR",
            "235": "IN_FAVOUR",
            "137": "IN_FAVOUR",
            "207": "IN_FAVOUR",
            "109": "IN_FAVOUR"
          },
          "title": "3rd Reading"
        }
      },
      "status": "FINISHED"
    },
    "3": {
      "date": "2019-05-20",
      "stage": "FIRST",
      "house": "LORDS",
      "divisions": {},
      "status": "FINISHED"
    },
    "4": {
      "date": "2019-05-26",
      "stage": "SECOND",
      "house": "LORDS",
      "divisions": {"0": {
        "votes": {
          "107": "IN_FAVOUR",
          "221": "IN_FAVOUR",
          "222": "DID_NOT_VOTE",
          "223": "DID_NOT_VOTE",
          "197": "IN_FAVOUR",
          "216": "DID_NOT_VOTE"
        },
        "title": "2nd Reading"
      }},
      "status": "FINISHED"
    },
    "5": {
      "date": "2019-05-31",
      "stage": "THIRD",
      "house": "LORDS",
      "divisions": {"0": {
        "votes": {
          "107": "IN_FAVOUR",
          "221": "DID_NOT_VOTE",
          "222": "DID_NOT_VOTE",
          "223": "DID_NOT_VOTE",
          "197": "IN_FAVOUR",
          "216": "DID_NOT_VOTE"
        },
        "title": "3rd Reading"
      }},
      "status": "FINISHED"
    },
    "6": {
      "date": "2019-06-01",
      "stage": "ROYAL_ASSENT",
      "house": "OTHER",
      "divisions": {}
    }
  },
  "id": "B008",
  "type": "BILL",
  "status": "SPENT",
  "longName": "Abortion (Northern Ireland) Bill"
}