{
  "name": "Vagrancy (Repeal) Bill",
  "stages": {
    "0": {
      "date": "2020-06-30",
      "stage": "FIRST",
      "house": "COMMONS",
      "divisions": {},
      "status": "FINISHED"
    },
    "1": {
      "date": "2020-07-03",
      "stage": "SECOND",
      "house": "COMMONS",
      "divisions": {"0": {
        "votes": {
          "161": "IN_FAVOUR",
          "174": "ABSTENTION",
          "120": "IN_FAVOUR",
          "164": "DID_NOT_VOTE",
          "154": "IN_FAVOUR",
          "122": "IN_FAVOUR",
          "211": "IN_FAVOUR",
          "212": "IN_FAVOUR",
          "103": "IN_FAVOUR",
          "203": "IN_FAVOUR",
          "149": "IN_FAVOUR",
          "139": "IN_FAVOUR",
          "129": "ABSTENTION",
          "108": "IN_FAVOUR"
        },
        "title": "2nd Reading"
      }},
      "status": "FINISHED"
    },
    "2": {
      "date": "2020-07-19",
      "stage": "REPORT",
      "house": "COMMONS",
      "divisions": {"0": {
        "votes": {
          "181": "DID_NOT_VOTE",
          "161": "AGAINST",
          "151": "DID_NOT_VOTE",
          "174": "ABSTENTION",
          "120": "ABSTENTION",
          "164": "AGAINST",
          "198": "AGAINST",
          "254": "IN_FAVOUR",
          "122": "AGAINST",
          "255": "AGAINST",
          "211": "AGAINST",
          "179": "DID_NOT_VOTE",
          "202": "DID_NOT_VOTE",
          "203": "AGAINST",
          "104": "AGAINST",
          "149": "AGAINST",
          "139": "AGAINST",
          "107": "AGAINST",
          "108": "AGAINST",
          "229": "ABSTENTION"
        },
        "title": "Amendment A"
      }},
      "status": "FINISHED"
    },
    "3": {
      "date": "2020-07-26",
      "stage": "THIRD",
      "house": "COMMONS",
      "divisions": {"0": {
        "votes": {
          "161": "IN_FAVOUR",
          "151": "IN_FAVOUR",
          "174": "IN_FAVOUR",
          "241": "IN_FAVOUR",
          "120": "IN_FAVOUR",
          "164": "IN_FAVOUR",
          "198": "IN_FAVOUR",
          "254": "IN_FAVOUR",
          "122": "IN_FAVOUR",
          "123": "IN_FAVOUR",
          "255": "DID_NOT_VOTE",
          "211": "DID_NOT_VOTE",
          "179": "IN_FAVOUR",
          "202": "DID_NOT_VOTE",
          "203": "IN_FAVOUR",
          "104": "IN_FAVOUR",
          "149": "IN_FAVOUR",
          "139": "IN_FAVOUR",
          "107": "IN_FAVOUR",
          "108": "IN_FAVOUR"
        },
        "title": "3rd Reading"
      }},
      "status": "FINISHED"
    },
    "4": {
      "date": "2020-07-27",
      "stage": "FIRST",
      "house": "LORDS",
      "divisions": {},
      "status": "FINISHED"
    },
    "5": {
      "date": "2020-07-31",
      "stage": "SECOND",
      "house": "LORDS",
      "divisions": {"0": {
        "votes": {
          "110": "IN_FAVOUR",
          "154": "IN_FAVOUR",
          "199": "IN_FAVOUR",
          "167": "IN_FAVOUR",
          "156": "IN_FAVOUR",
          "168": "IN_FAVOUR",
          "125": "IN_FAVOUR",
          "175": "DID_NOT_VOTE",
          "230": "IN_FAVOUR"
        },
        "title": "2nd Reading"
      }},
      "status": "FINISHED"
    },
    "6": {
      "date": "2020-08-21",
      "stage": "THIRD",
      "house": "LORDS",
      "divisions": {"0": {
        "votes": {
          "181": "IN_FAVOUR",
          "175": "DID_NOT_VOTE",
          "110": "IN_FAVOUR",
          "154": "IN_FAVOUR",
          "231": "IN_FAVOUR",
          "199": "IN_FAVOUR",
          "133": "IN_FAVOUR",
          "167": "IN_FAVOUR",
          "156": "IN_FAVOUR",
          "135": "IN_FAVOUR",
          "125": "IN_FAVOUR",
          "159": "IN_FAVOUR",
          "139": "IN_FAVOUR"
        },
        "title": "3rd Reading"
      }},
      "status": "FINISHED"
    },
    "7": {
      "date": "2020-08-22",
      "stage": "ROYAL_ASSENT",
      "house": "OTHER",
      "divisions": {}
    }
  },
  "id": "B033",
  "type": "BILL",
  "status": "ROYAL_ASSENT",
  "longName": "Vagrancy (Repeal) Bill"
}