{
  "name": "Languages of the UK Bill",
  "stages": {
    "22": {
      "date": "2020-11-28",
      "stage": "REPORT",
      "house": "LORDS",
      "divisions": {
        "0": {
          "votes": {
            "110": "IN_FAVOUR",
            "154": "IN_FAVOUR",
            "199": "IN_FAVOUR",
            "133": "IN_FAVOUR",
            "167": "ABSTENTION",
            "156": "ABSTENTION",
            "148": "IN_FAVOUR",
            "116": "IN_FAVOUR",
            "181": "IN_FAVOUR",
            "175": "IN_FAVOUR"
          },
          "title": "Amendment D"
        },
        "1": {
          "votes": {
            "110": "IN_FAVOUR",
            "154": "AGAINST",
            "199": "ABSTENTION",
            "133": "ABSTENTION",
            "167": "ABSTENTION",
            "156": "ABSTENTION",
            "169": "AGAINST",
            "148": "AGAINST",
            "116": "IN_FAVOUR",
            "181": "IN_FAVOUR",
            "175": "AGAINST"
          },
          "title": "Amendment F"
        },
        "2": {
          "votes": {
            "110": "IN_FAVOUR",
            "154": "IN_FAVOUR",
            "199": "IN_FAVOUR",
            "133": "ABSTENTION",
            "167": "ABSTENTION",
            "156": "ABSTENTION",
            "148": "AGAINST",
            "116": "IN_FAVOUR",
            "181": "IN_FAVOUR",
            "175": "AGAINST"
          },
          "title": "Amendment G"
        }
      },
      "status": "FINISHED"
    },
    "23": {
      "date": "2020-11-28",
      "stage": "THIRD",
      "house": "LORDS",
      "divisions": {"0": {
        "votes": {
          "110": "IN_FAVOUR",
          "154": "IN_FAVOUR",
          "199": "IN_FAVOUR",
          "133": "DID_NOT_VOTE",
          "167": "AGAINST",
          "156": "ABSTENTION",
          "148": "IN_FAVOUR",
          "116": "IN_FAVOUR",
          "181": "DID_NOT_VOTE",
          "175": "AGAINST"
        },
        "title": "3rd Reading"
      }},
      "status": "FINISHED"
    },
    "24": {
      "date": "2020-11-28",
      "stage": "FIRST",
      "house": "COMMONS",
      "divisions": {},
      "status": "FINISHED"
    },
    "25": {
      "date": "2020-11-28",
      "stage": "SECOND",
      "house": "COMMONS",
      "divisions": {"0": {
        "votes": {
          "171": "IN_FAVOUR",
          "161": "IN_FAVOUR",
          "151": "IN_FAVOUR",
          "174": "IN_FAVOUR",
          "153": "IN_FAVOUR",
          "120": "DID_NOT_VOTE",
          "164": "DID_NOT_VOTE",
          "198": "IN_FAVOUR",
          "253": "IN_FAVOUR",
          "188": "IN_FAVOUR",
          "123": "IN_FAVOUR",
          "115": "IN_FAVOUR",
          "203": "IN_FAVOUR",
          "149": "IN_FAVOUR",
          "106": "IN_FAVOUR",
          "107": "DID_NOT_VOTE",
          "108": "IN_FAVOUR"
        },
        "title": "2nd Reading"
      }},
      "status": "FINISHED"
    },
    "26": {
      "date": "2020-11-29",
      "stage": "REPORT",
      "house": "COMMONS",
      "divisions": {"0": {
        "votes": {
          "171": "AGAINST",
          "161": "IN_FAVOUR",
          "151": "ABSTENTION",
          "174": "AGAINST",
          "153": "AGAINST",
          "120": "DID_NOT_VOTE",
          "164": "DID_NOT_VOTE",
          "198": "DID_NOT_VOTE",
          "253": "AGAINST",
          "188": "AGAINST",
          "123": "AGAINST",
          "115": "ABSTENTION",
          "203": "AGAINST",
          "149": "ABSTENTION",
          "106": "AGAINST",
          "107": "DID_NOT_VOTE",
          "108": "AGAINST"
        },
        "title": "Amendment A"
      }},
      "status": "FINISHED"
    },
    "27": {
      "date": "2020-11-29",
      "stage": "THIRD",
      "house": "COMMONS",
      "divisions": {"0": {
        "votes": {
          "171": "IN_FAVOUR",
          "161": "IN_FAVOUR",
          "151": "IN_FAVOUR",
          "174": "IN_FAVOUR",
          "153": "IN_FAVOUR",
          "120": "DID_NOT_VOTE",
          "164": "DID_NOT_VOTE",
          "198": "DID_NOT_VOTE",
          "253": "IN_FAVOUR",
          "188": "IN_FAVOUR",
          "123": "IN_FAVOUR",
          "115": "IN_FAVOUR",
          "203": "IN_FAVOUR",
          "149": "IN_FAVOUR",
          "106": "IN_FAVOUR",
          "107": "DID_NOT_VOTE",
          "108": "IN_FAVOUR"
        },
        "title": "3rd Reading"
      }},
      "status": "FINISHED"
    },
    "28": {
      "date": "2020-11-30",
      "stage": "ROYAL_ASSENT",
      "house": "OTHER",
      "divisions": {}
    },
    "10": {
      "date": "2020-11-13",
      "stage": "REPORT",
      "house": "COMMONS",
      "divisions": {
        "0": {
          "votes": {
            "182": "DID_NOT_VOTE",
            "171": "DID_NOT_VOTE",
            "161": "IN_FAVOUR",
            "151": "AGAINST",
            "174": "AGAINST",
            "252": "DID_NOT_VOTE",
            "153": "AGAINST",
            "120": "DID_NOT_VOTE",
            "164": "DID_NOT_VOTE",
            "198": "IN_FAVOUR",
            "188": "AGAINST",
            "123": "IN_FAVOUR",
            "179": "DID_NOT_VOTE",
            "256": "DID_NOT_VOTE",
            "203": "IN_FAVOUR",
            "149": "AGAINST",
            "106": "AGAINST",
            "107": "AGAINST",
            "108": "ABSTENTION"
          },
          "title": "Amendment A"
        },
        "1": {
          "votes": {
            "182": "DID_NOT_VOTE",
            "171": "DID_NOT_VOTE",
            "161": "AGAINST",
            "151": "AGAINST",
            "174": "AGAINST",
            "252": "DID_NOT_VOTE",
            "153": "AGAINST",
            "120": "DID_NOT_VOTE",
            "164": "DID_NOT_VOTE",
            "198": "AGAINST",
            "188": "AGAINST",
            "123": "AGAINST",
            "179": "AGAINST",
            "256": "DID_NOT_VOTE",
            "203": "AGAINST",
            "149": "AGAINST",
            "106": "AGAINST",
            "107": "AGAINST",
            "108": "ABSTENTION"
          },
          "title": "Amendment B"
        },
        "2": {
          "votes": {
            "182": "DID_NOT_VOTE",
            "171": "DID_NOT_VOTE",
            "161": "IN_FAVOUR",
            "151": "IN_FAVOUR",
            "174": "IN_FAVOUR",
            "252": "DID_NOT_VOTE",
            "153": "IN_FAVOUR",
            "120": "DID_NOT_VOTE",
            "164": "DID_NOT_VOTE",
            "198": "IN_FAVOUR",
            "188": "IN_FAVOUR",
            "123": "IN_FAVOUR",
            "179": "IN_FAVOUR",
            "256": "DID_NOT_VOTE",
            "203": "IN_FAVOUR",
            "149": "IN_FAVOUR",
            "106": "IN_FAVOUR",
            "107": "IN_FAVOUR",
            "108": "IN_FAVOUR"
          },
          "title": "Amendment C"
        }
      },
      "status": "FINISHED"
    },
    "11": {
      "date": "2020-11-14",
      "stage": "THIRD",
      "house": "COMMONS",
      "divisions": {"0": {
        "votes": {
          "171": "IN_FAVOUR",
          "161": "IN_FAVOUR",
          "151": "IN_FAVOUR",
          "174": "IN_FAVOUR",
          "252": "DID_NOT_VOTE",
          "153": "DID_NOT_VOTE",
          "120": "DID_NOT_VOTE",
          "164": "DID_NOT_VOTE",
          "198": "IN_FAVOUR",
          "188": "IN_FAVOUR",
          "123": "IN_FAVOUR",
          "256": "DID_NOT_VOTE",
          "115": "IN_FAVOUR",
          "203": "IN_FAVOUR",
          "149": "IN_FAVOUR",
          "106": "IN_FAVOUR",
          "107": "IN_FAVOUR",
          "108": "IN_FAVOUR"
        },
        "title": "3rd Reading"
      }},
      "status": "FINISHED"
    },
    "12": {
      "date": "2020-11-15",
      "stage": "FIRST",
      "house": "LORDS",
      "divisions": {},
      "status": "FINISHED"
    },
    "13": {
      "date": "2020-11-15",
      "stage": "SECOND",
      "house": "LORDS",
      "divisions": {"0": {
        "votes": {
          "110": "IN_FAVOUR",
          "154": "IN_FAVOUR",
          "199": "IN_FAVOUR",
          "133": "DID_NOT_VOTE",
          "167": "AGAINST",
          "156": "DID_NOT_VOTE",
          "148": "IN_FAVOUR",
          "116": "IN_FAVOUR",
          "181": "IN_FAVOUR",
          "175": "AGAINST"
        },
        "title": "2nd Reading"
      }},
      "status": "FINISHED"
    },
    "14": {
      "date": "2020-11-20",
      "stage": "REPORT",
      "house": "LORDS",
      "divisions": {
        "0": {
          "votes": {
            "110": "IN_FAVOUR",
            "154": "IN_FAVOUR",
            "199": "IN_FAVOUR",
            "133": "IN_FAVOUR",
            "167": "ABSTENTION",
            "156": "IN_FAVOUR",
            "148": "IN_FAVOUR",
            "116": "IN_FAVOUR",
            "181": "IN_FAVOUR",
            "175": "AGAINST"
          },
          "title": "Amendment A"
        },
        "1": {
          "votes": {
            "110": "IN_FAVOUR",
            "154": "IN_FAVOUR",
            "199": "IN_FAVOUR",
            "133": "IN_FAVOUR",
            "167": "DID_NOT_VOTE",
            "156": "IN_FAVOUR",
            "148": "DID_NOT_VOTE",
            "116": "IN_FAVOUR",
            "181": "IN_FAVOUR",
            "175": "IN_FAVOUR"
          },
          "title": "Amendment B"
        },
        "2": {
          "votes": {
            "110": "ABSTENTION",
            "154": "IN_FAVOUR",
            "199": "IN_FAVOUR",
            "133": "IN_FAVOUR",
            "167": "AGAINST",
            "156": "AGAINST",
            "148": "DID_NOT_VOTE",
            "116": "IN_FAVOUR",
            "181": "AGAINST",
            "175": "IN_FAVOUR"
          },
          "title": "Amendment C"
        },
        "3": {
          "votes": {
            "110": "IN_FAVOUR",
            "154": "IN_FAVOUR",
            "199": "ABSTENTION",
            "133": "IN_FAVOUR",
            "167": "IN_FAVOUR",
            "156": "ABSTENTION",
            "148": "IN_FAVOUR",
            "116": "IN_FAVOUR",
            "181": "IN_FAVOUR",
            "175": "IN_FAVOUR"
          },
          "title": "Amendment D"
        },
        "4": {
          "votes": {
            "110": "ABSTENTION",
            "154": "ABSTENTION",
            "199": "IN_FAVOUR",
            "133": "DID_NOT_VOTE",
            "167": "ABSTENTION",
            "156": "ABSTENTION",
            "148": "IN_FAVOUR",
            "116": "IN_FAVOUR",
            "181": "IN_FAVOUR",
            "175": "ABSTENTION"
          },
          "title": "Amendment E"
        },
        "5": {
          "votes": {
            "110": "AGAINST",
            "154": "AGAINST",
            "199": "AGAINST",
            "133": "DID_NOT_VOTE",
            "167": "IN_FAVOUR",
            "156": "ABSTENTION",
            "148": "IN_FAVOUR",
            "116": "AGAINST",
            "181": "AGAINST",
            "175": "AGAINST"
          },
          "title": "Amendment F"
        }
      },
      "status": "FINISHED"
    },
    "15": {
      "date": "2020-11-21",
      "stage": "THIRD",
      "house": "LORDS",
      "divisions": {"0": {
        "votes": {
          "110": "IN_FAVOUR",
          "154": "IN_FAVOUR",
          "199": "IN_FAVOUR",
          "133": "DID_NOT_VOTE",
          "167": "AGAINST",
          "156": "ABSTENTION",
          "148": "AGAINST",
          "116": "IN_FAVOUR",
          "181": "IN_FAVOUR",
          "175": "IN_FAVOUR"
        },
        "title": "3rd Reading"
      }},
      "status": "FINISHED"
    },
    "16": {
      "date": "2020-11-21",
      "stage": "FIRST",
      "house": "COMMONS",
      "divisions": {},
      "status": "FINISHED"
    },
    "17": {
      "date": "2020-11-22",
      "stage": "SECOND",
      "house": "COMMONS",
      "divisions": {"0": {
        "votes": {
          "171": "IN_FAVOUR",
          "161": "IN_FAVOUR",
          "151": "IN_FAVOUR",
          "174": "IN_FAVOUR",
          "153": "DID_NOT_VOTE",
          "120": "IN_FAVOUR",
          "164": "IN_FAVOUR",
          "198": "IN_FAVOUR",
          "253": "IN_FAVOUR",
          "188": "IN_FAVOUR",
          "123": "IN_FAVOUR",
          "115": "IN_FAVOUR",
          "203": "IN_FAVOUR",
          "149": "IN_FAVOUR",
          "106": "IN_FAVOUR",
          "107": "IN_FAVOUR",
          "108": "IN_FAVOUR"
        },
        "title": "2nd Reading"
      }},
      "status": "FINISHED"
    },
    "18": {
      "date": "2020-11-24",
      "stage": "REPORT",
      "house": "COMMONS",
      "divisions": {
        "0": {
          "votes": {
            "171": "IN_FAVOUR",
            "161": "IN_FAVOUR",
            "151": "IN_FAVOUR",
            "174": "IN_FAVOUR",
            "153": "IN_FAVOUR",
            "120": "DID_NOT_VOTE",
            "164": "IN_FAVOUR",
            "198": "IN_FAVOUR",
            "253": "IN_FAVOUR",
            "188": "IN_FAVOUR",
            "123": "IN_FAVOUR",
            "115": "IN_FAVOUR",
            "203": "DID_NOT_VOTE",
            "149": "IN_FAVOUR",
            "106": "DID_NOT_VOTE",
            "107": "IN_FAVOUR",
            "108": "IN_FAVOUR"
          },
          "title": "Amendment A"
        },
        "1": {
          "votes": {
            "171": "IN_FAVOUR",
            "161": "IN_FAVOUR",
            "151": "IN_FAVOUR",
            "174": "IN_FAVOUR",
            "153": "IN_FAVOUR",
            "120": "DID_NOT_VOTE",
            "164": "IN_FAVOUR",
            "198": "IN_FAVOUR",
            "253": "IN_FAVOUR",
            "188": "IN_FAVOUR",
            "123": "IN_FAVOUR",
            "115": "IN_FAVOUR",
            "203": "DID_NOT_VOTE",
            "149": "IN_FAVOUR",
            "106": "DID_NOT_VOTE",
            "107": "IN_FAVOUR",
            "108": "IN_FAVOUR"
          },
          "title": "Amendment B"
        },
        "2": {
          "votes": {
            "171": "IN_FAVOUR",
            "161": "IN_FAVOUR",
            "151": "IN_FAVOUR",
            "174": "IN_FAVOUR",
            "153": "IN_FAVOUR",
            "120": "DID_NOT_VOTE",
            "164": "IN_FAVOUR",
            "198": "IN_FAVOUR",
            "253": "IN_FAVOUR",
            "188": "IN_FAVOUR",
            "123": "IN_FAVOUR",
            "115": "IN_FAVOUR",
            "203": "DID_NOT_VOTE",
            "149": "IN_FAVOUR",
            "106": "DID_NOT_VOTE",
            "107": "IN_FAVOUR",
            "108": "IN_FAVOUR"
          },
          "title": "Amendment C"
        }
      },
      "status": "FINISHED"
    },
    "19": {
      "date": "2020-11-27",
      "stage": "THIRD",
      "house": "COMMONS",
      "divisions": {},
      "status": "FINISHED"
    },
    "0": {
      "date": "2020-09-10",
      "stage": "FIRST",
      "house": "COMMONS",
      "divisions": {},
      "status": "FINISHED"
    },
    "1": {
      "date": "2020-09-12",
      "stage": "SECOND",
      "house": "COMMONS",
      "divisions": {"0": {
        "votes": {
          "190": "DID_NOT_VOTE",
          "182": "IN_FAVOUR",
          "171": "IN_FAVOUR",
          "161": "IN_FAVOUR",
          "151": "IN_FAVOUR",
          "174": "IN_FAVOUR",
          "252": "IN_FAVOUR",
          "241": "IN_FAVOUR",
          "120": "IN_FAVOUR",
          "164": "IN_FAVOUR",
          "198": "IN_FAVOUR",
          "188": "IN_FAVOUR",
          "123": "IN_FAVOUR",
          "211": "IN_FAVOUR",
          "179": "IN_FAVOUR",
          "203": "IN_FAVOUR",
          "104": "AGAINST",
          "149": "IN_FAVOUR",
          "107": "IN_FAVOUR",
          "108": "IN_FAVOUR"
        },
        "title": "2nd Reading"
      }},
      "status": "FINISHED"
    },
    "2": {
      "date": "2020-09-25",
      "stage": "REPORT",
      "house": "COMMONS",
      "divisions": {
        "0": {
          "votes": {
            "190": "DID_NOT_VOTE",
            "182": "DID_NOT_VOTE",
            "171": "IN_FAVOUR",
            "161": "DID_NOT_VOTE",
            "151": "IN_FAVOUR",
            "174": "IN_FAVOUR",
            "252": "IN_FAVOUR",
            "120": "IN_FAVOUR",
            "164": "DID_NOT_VOTE",
            "198": "IN_FAVOUR",
            "188": "IN_FAVOUR",
            "123": "IN_FAVOUR",
            "179": "IN_FAVOUR",
            "257": "DID_NOT_VOTE",
            "203": "IN_FAVOUR",
            "159": "IN_FAVOUR",
            "149": "IN_FAVOUR",
            "107": "IN_FAVOUR",
            "108": "IN_FAVOUR"
          },
          "title": "Amendment A"
        },
        "1": {
          "votes": {
            "190": "DID_NOT_VOTE",
            "182": "DID_NOT_VOTE",
            "171": "IN_FAVOUR",
            "161": "DID_NOT_VOTE",
            "151": "IN_FAVOUR",
            "174": "IN_FAVOUR",
            "252": "IN_FAVOUR",
            "120": "IN_FAVOUR",
            "164": "DID_NOT_VOTE",
            "198": "IN_FAVOUR",
            "188": "IN_FAVOUR",
            "123": "IN_FAVOUR",
            "179": "IN_FAVOUR",
            "257": "DID_NOT_VOTE",
            "203": "IN_FAVOUR",
            "159": "IN_FAVOUR",
            "149": "IN_FAVOUR",
            "107": "IN_FAVOUR",
            "108": "IN_FAVOUR"
          },
          "title": "Amendment B"
        }
      },
      "status": "FINISHED"
    },
    "3": {
      "date": "2020-09-26",
      "stage": "THIRD",
      "house": "COMMONS",
      "divisions": {"0": {
        "votes": {
          "190": "DID_NOT_VOTE",
          "182": "IN_FAVOUR",
          "171": "IN_FAVOUR",
          "161": "IN_FAVOUR",
          "151": "IN_FAVOUR",
          "174": "IN_FAVOUR",
          "252": "IN_FAVOUR",
          "120": "DID_NOT_VOTE",
          "164": "DID_NOT_VOTE",
          "198": "IN_FAVOUR",
          "188": "DID_NOT_VOTE",
          "123": "IN_FAVOUR",
          "179": "DID_NOT_VOTE",
          "257": "AGAINST",
          "203": "IN_FAVOUR",
          "159": "AGAINST",
          "149": "IN_FAVOUR",
          "107": "IN_FAVOUR",
          "108": "IN_FAVOUR"
        },
        "title": "3rd Reading"
      }},
      "status": "FINISHED"
    },
    "4": {
      "date": "2020-09-27",
      "stage": "FIRST",
      "house": "LORDS",
      "divisions": {},
      "status": "FINISHED"
    },
    "5": {
      "date": "2020-09-27",
      "stage": "SECOND",
      "house": "LORDS",
      "divisions": {"0": {
        "votes": {
          "110": "IN_FAVOUR",
          "154": "IN_FAVOUR",
          "199": "IN_FAVOUR",
          "133": "AGAINST",
          "167": "AGAINST",
          "156": "DID_NOT_VOTE",
          "135": "IN_FAVOUR",
          "125": "IN_FAVOUR",
          "116": "AGAINST",
          "139": "IN_FAVOUR",
          "181": "IN_FAVOUR",
          "175": "AGAINST"
        },
        "title": "2nd Reading"
      }},
      "status": "FINISHED"
    },
    "6": {
      "date": "2020-11-06",
      "stage": "REPORT",
      "house": "LORDS",
      "divisions": {"0": {
        "votes": {
          "110": "AGAINST",
          "154": "IN_FAVOUR",
          "199": "AGAINST",
          "133": "ABSTENTION",
          "167": "IN_FAVOUR",
          "156": "IN_FAVOUR",
          "169": "AGAINST",
          "148": "IN_FAVOUR",
          "116": "AGAINST",
          "181": "AGAINST",
          "175": "ABSTENTION"
        },
        "title": "Amendment A"
      }},
      "status": "FINISHED"
    },
    "7": {
      "date": "2020-11-07",
      "stage": "THIRD",
      "house": "LORDS",
      "divisions": {"0": {
        "votes": {
          "110": "AGAINST",
          "154": "IN_FAVOUR",
          "199": "IN_FAVOUR",
          "133": "DID_NOT_VOTE",
          "167": "AGAINST",
          "156": "ABSTENTION",
          "169": "AGAINST",
          "148": "ABSTENTION",
          "116": "ABSTENTION",
          "181": "DID_NOT_VOTE",
          "175": "ABSTENTION"
        },
        "title": "3rd Reading"
      }},
      "status": "FINISHED"
    },
    "8": {
      "date": "2020-11-08",
      "stage": "FIRST",
      "house": "COMMONS",
      "divisions": {},
      "status": "FINISHED"
    },
    "9": {
      "date": "2020-11-08",
      "stage": "SECOND",
      "house": "COMMONS",
      "divisions": {"0": {
        "votes": {
          "182": "DID_NOT_VOTE",
          "171": "IN_FAVOUR",
          "161": "IN_FAVOUR",
          "151": "IN_FAVOUR",
          "174": "ABSTENTION",
          "252": "DID_NOT_VOTE",
          "153": "IN_FAVOUR",
          "120": "DID_NOT_VOTE",
          "164": "IN_FAVOUR",
          "198": "IN_FAVOUR",
          "188": "IN_FAVOUR",
          "123": "IN_FAVOUR",
          "179": "IN_FAVOUR",
          "256": "DID_NOT_VOTE",
          "203": "IN_FAVOUR",
          "149": "ABSTENTION",
          "106": "ABSTENTION",
          "107": "IN_FAVOUR",
          "108": "IN_FAVOUR"
        },
        "title": "2nd Reading"
      }},
      "status": "FINISHED"
    },
    "20": {
      "date": "2020-11-27",
      "stage": "FIRST",
      "house": "LORDS",
      "divisions": {},
      "status": "FINISHED"
    },
    "21": {
      "date": "2020-11-27",
      "stage": "SECOND",
      "house": "LORDS",
      "divisions": {"0": {
        "votes": {
          "110": "IN_FAVOUR",
          "154": "IN_FAVOUR",
          "199": "IN_FAVOUR",
          "133": "ABSTENTION",
          "167": "AGAINST",
          "156": "ABSTENTION",
          "148": "ABSTENTION",
          "116": "IN_FAVOUR",
          "181": "IN_FAVOUR",
          "175": "AGAINST"
        },
        "title": "2nd Reading"
      }},
      "status": "FINISHED"
    }
  },
  "id": "B050",
  "type": "BILL",
  "status": "NOT_YET_IN_FORCE",
  "longName": "Languages of the UK Bill"
}