{
  "name": "Referendum in Northumbria Bill",
  "stages": {
    "0": {
      "date": "2020-09-10",
      "stage": "FIRST",
      "house": "COMMONS",
      "divisions": {},
      "status": "FINISHED"
    },
    "1": {
      "date": "2020-09-13",
      "stage": "SECOND",
      "house": "COMMONS",
      "divisions": {"0": {
        "votes": {
          "190": "DID_NOT_VOTE",
          "182": "IN_FAVOUR",
          "171": "DID_NOT_VOTE",
          "161": "IN_FAVOUR",
          "151": "IN_FAVOUR",
          "174": "AGAINST",
          "252": "AGAINST",
          "241": "DID_NOT_VOTE",
          "120": "AGAINST",
          "164": "IN_FAVOUR",
          "198": "ABSTENTION",
          "188": "AGAINST",
          "123": "AGAINST",
          "211": "DID_NOT_VOTE",
          "179": "IN_FAVOUR",
          "203": "AGAINST",
          "104": "AGAINST",
          "149": "ABSTENTION",
          "107": "AGAINST",
          "108": "DID_NOT_VOTE"
        },
        "title": "2nd Reading"
      }},
      "status": "FINISHED"
    }
  },
  "id": "B051",
  "type": "BILL",
  "status": "REJECTED",
  "longName": "Referendum in Northumbria Bill"
}