{
  "name": "Fixed-Term Parliaments (Repeal) Bill",
  "stages": {
    "0": {
      "date": "2020-09-19",
      "stage": "FIRST",
      "house": "COMMONS",
      "divisions": {},
      "status": "FINISHED"
    },
    "1": {
      "date": "2020-09-19",
      "stage": "SECOND",
      "house": "COMMONS",
      "divisions": {"0": {
        "votes": {
          "190": "DID_NOT_VOTE",
          "182": "DID_NOT_VOTE",
          "171": "IN_FAVOUR",
          "161": "IN_FAVOUR",
          "151": "DID_NOT_VOTE",
          "174": "DID_NOT_VOTE",
          "252": "IN_FAVOUR",
          "241": "DID_NOT_VOTE",
          "120": "IN_FAVOUR",
          "164": "IN_FAVOUR",
          "198": "ABSTENTION",
          "188": "IN_FAVOUR",
          "123": "IN_FAVOUR",
          "179": "IN_FAVOUR",
          "257": "DID_NOT_VOTE",
          "203": "IN_FAVOUR",
          "159": "IN_FAVOUR",
          "149": "ABSTENTION",
          "107": "IN_FAVOUR",
          "108": "IN_FAVOUR"
        },
        "title": "2nd Reading"
      }},
      "status": "FINISHED"
    },
    "2": {
      "date": "2020-11-07",
      "stage": "THIRD",
      "house": "COMMONS",
      "divisions": {"0": {
        "votes": {
          "182": "DID_NOT_VOTE",
          "171": "IN_FAVOUR",
          "161": "DID_NOT_VOTE",
          "151": "IN_FAVOUR",
          "174": "IN_FAVOUR",
          "252": "DID_NOT_VOTE",
          "153": "DID_NOT_VOTE",
          "120": "IN_FAVOUR",
          "164": "IN_FAVOUR",
          "198": "IN_FAVOUR",
          "188": "DID_NOT_VOTE",
          "123": "AGAINST",
          "179": "ABSTENTION",
          "256": "DID_NOT_VOTE",
          "203": "AGAINST",
          "149": "IN_FAVOUR",
          "106": "IN_FAVOUR",
          "107": "AGAINST",
          "108": "ABSTENTION"
        },
        "title": "3rd Reading"
      }},
      "status": "FINISHED"
    },
    "3": {
      "date": "2020-11-08",
      "stage": "FIRST",
      "house": "LORDS",
      "divisions": {},
      "status": "FINISHED"
    },
    "4": {
      "date": "2020-11-08",
      "stage": "SECOND",
      "house": "LORDS",
      "divisions": {"0": {
        "votes": {
          "110": "ABSTENTION",
          "154": "AGAINST",
          "199": "AGAINST",
          "133": "DID_NOT_VOTE",
          "167": "AGAINST",
          "156": "DID_NOT_VOTE",
          "148": "IN_FAVOUR",
          "116": "IN_FAVOUR",
          "181": "AGAINST",
          "175": "DID_NOT_VOTE"
        },
        "title": "2nd Reading"
      }},
      "status": "FINISHED"
    },
    "5": {
      "date": "2020-11-09",
      "stage": "FIRST",
      "house": "COMMONS",
      "divisions": {},
      "status": "FINISHED"
    },
    "6": {
      "date": "2020-11-15",
      "stage": "SECOND",
      "house": "COMMONS",
      "divisions": {"0": {
        "votes": {
          "171": "DID_NOT_VOTE",
          "161": "DID_NOT_VOTE",
          "151": "IN_FAVOUR",
          "174": "IN_FAVOUR",
          "153": "DID_NOT_VOTE",
          "120": "IN_FAVOUR",
          "164": "DID_NOT_VOTE",
          "198": "IN_FAVOUR",
          "188": "IN_FAVOUR",
          "123": "IN_FAVOUR",
          "115": "IN_FAVOUR",
          "203": "IN_FAVOUR",
          "149": "IN_FAVOUR",
          "106": "IN_FAVOUR",
          "107": "IN_FAVOUR",
          "108": "DID_NOT_VOTE"
        },
        "title": "2nd Reading"
      }},
      "status": "FINISHED"
    },
    "7": {
      "date": "2020-11-21",
      "stage": "THIRD",
      "house": "COMMONS",
      "divisions": {"0": {
        "votes": {
          "171": "IN_FAVOUR",
          "161": "ABSTENTION",
          "151": "ABSTENTION",
          "174": "ABSTENTION",
          "153": "DID_NOT_VOTE",
          "120": "DID_NOT_VOTE",
          "164": "IN_FAVOUR",
          "198": "IN_FAVOUR",
          "188": "DID_NOT_VOTE",
          "123": "DID_NOT_VOTE",
          "115": "ABSTENTION",
          "203": "IN_FAVOUR",
          "149": "IN_FAVOUR",
          "106": "IN_FAVOUR",
          "107": "IN_FAVOUR",
          "108": "DID_NOT_VOTE"
        },
        "title": "3rd Reading"
      }},
      "status": "FINISHED"
    },
    "8": {
      "date": "2020-11-21",
      "stage": "ROYAL_ASSENT",
      "house": "OTHER",
      "divisions": {}
    }
  },
  "id": "B054",
  "type": "BILL",
  "status": "ROYAL_ASSENT",
  "longName": "Fixed-Term Parliaments (Repeal) Bill"
}