{
  "name": "Cookie Bill",
  "stages": {
    "0": {
      "date": "2021-01-22",
      "stage": "FIRST",
      "house": "COMMONS",
      "divisions": {},
      "status": "FINISHED"
    },
    "1": {
      "date": "2021-01-29",
      "stage": "THIRD",
      "house": "COMMONS",
      "divisions": {"0": {
        "votes": {
          "191": "IN_FAVOUR",
          "171": "IN_FAVOUR",
          "260": "DID_NOT_VOTE",
          "151": "IN_FAVOUR",
          "153": "IN_FAVOUR",
          "198": "DID_NOT_VOTE",
          "199": "IN_FAVOUR",
          "123": "IN_FAVOUR",
          "135": "IN_FAVOUR",
          "258": "IN_FAVOUR",
          "148": "IN_FAVOUR",
          "115": "IN_FAVOUR",
          "149": "IN_FAVOUR",
          "259": "IN_FAVOUR",
          "107": "IN_FAVOUR"
        },
        "title": "3rd Reading"
      }},
      "status": "FINISHED"
    },
    "2": {
      "date": "2021-01-30",
      "stage": "FIRST",
      "house": "LORDS",
      "divisions": {},
      "status": "FINISHED"
    },
    "3": {
      "date": "2021-01-31",
      "stage": "SECOND",
      "house": "COMMONS",
      "divisions": {"0": {
        "votes": {
          "191": "IN_FAVOUR",
          "171": "DID_NOT_VOTE",
          "260": "IN_FAVOUR",
          "151": "IN_FAVOUR",
          "153": "DID_NOT_VOTE",
          "198": "ABSTENTION",
          "199": "IN_FAVOUR",
          "123": "IN_FAVOUR",
          "135": "IN_FAVOUR",
          "258": "IN_FAVOUR",
          "148": "DID_NOT_VOTE",
          "115": "IN_FAVOUR",
          "149": "ABSTENTION",
          "259": "IN_FAVOUR",
          "107": "IN_FAVOUR"
        },
        "title": "2nd Reading"
      }},
      "status": "FINISHED"
    },
    "4": {
      "date": "2021-01-31",
      "stage": "SECOND",
      "house": "LORDS",
      "divisions": {"0": {
        "votes": {
          "181": "IN_FAVOUR",
          "174": "IN_FAVOUR",
          "163": "DID_NOT_VOTE",
          "175": "ABSTENTION",
          "264": "AGAINST",
          "232": "DID_NOT_VOTE",
          "177": "IN_FAVOUR",
          "133": "IN_FAVOUR",
          "156": "IN_FAVOUR",
          "233": "AGAINST",
          "169": "AGAINST",
          "114": "IN_FAVOUR",
          "203": "IN_FAVOUR",
          "116": "IN_FAVOUR"
        },
        "title": "2nd Reading"
      }},
      "status": "FINISHED"
    },
    "5": {
      "date": "2021-02-05",
      "stage": "REPORT",
      "house": "LORDS",
      "divisions": {"0": {
        "votes": {
          "181": "DID_NOT_VOTE",
          "174": "IN_FAVOUR",
          "163": "AGAINST",
          "175": "DID_NOT_VOTE",
          "264": "AGAINST",
          "232": "AGAINST",
          "177": "AGAINST",
          "133": "AGAINST",
          "156": "IN_FAVOUR",
          "233": "IN_FAVOUR",
          "169": "IN_FAVOUR",
          "114": "AGAINST",
          "203": "IN_FAVOUR",
          "116": "DID_NOT_VOTE"
        },
        "title": "Amendment A"
      }},
      "status": "FINISHED"
    },
    "6": {
      "date": "2021-02-06",
      "stage": "THIRD",
      "house": "LORDS",
      "divisions": {"0": {
        "votes": {
          "181": "DID_NOT_VOTE",
          "174": "IN_FAVOUR",
          "163": "IN_FAVOUR",
          "175": "DID_NOT_VOTE",
          "264": "IN_FAVOUR",
          "232": "IN_FAVOUR",
          "177": "IN_FAVOUR",
          "133": "DID_NOT_VOTE",
          "156": "IN_FAVOUR",
          "169": "IN_FAVOUR",
          "114": "ABSTENTION",
          "203": "IN_FAVOUR",
          "116": "IN_FAVOUR"
        },
        "title": "3rd Reading"
      }},
      "status": "FINISHED"
    },
    "7": {
      "date": "2021-02-09",
      "stage": "ROYAL_ASSENT",
      "house": "OTHER",
      "divisions": {}
    }
  },
  "id": "B056",
  "type": "BILL",
  "status": "ROYAL_ASSENT",
  "longName": "Cookie Bill"
}