{
  "name": "Against Fake News Bill 2021",
  "stages": {
    "0": {
      "date": "2021-03-09",
      "stage": "FIRST",
      "house": "COMMONS",
      "divisions": {},
      "status": "FINISHED"
    },
    "1": {
      "date": "2021-03-13",
      "stage": "SECOND",
      "house": "COMMONS",
      "divisions": {"0": {
        "votes": {
          "191": "IN_FAVOUR",
          "192": "AGAINST",
          "171": "AGAINST",
          "163": "AGAINST",
          "153": "DID_NOT_VOTE",
          "198": "ABSTENTION",
          "111": "IN_FAVOUR",
          "199": "AGAINST",
          "177": "AGAINST",
          "123": "AGAINST",
          "114": "ABSTENTION",
          "115": "AGAINST",
          "105": "IN_FAVOUR",
          "149": "AGAINST"
        },
        "title": "2nd Reading"
      }},
      "status": "FINISHED"
    }
  },
  "id": "B067",
  "type": "BILL",
  "status": "REJECTED",
  "longName": "Against Fake News Bill 2021"
}