{
  "name": "Cornwall Bill",
  "stages": {
    "0": {
      "date": "2021-03-10",
      "stage": "FIRST",
      "house": "COMMONS",
      "divisions": {},
      "status": "FINISHED"
    },
    "11": {
      "date": "2021-05-13",
      "stage": "ROYAL_ASSENT",
      "house": "OTHER",
      "divisions": {}
    },
    "1": {
      "date": "2021-03-21",
      "stage": "SECOND",
      "house": "COMMONS",
      "divisions": {"0": {
        "votes": {
          "191": "ABSTENTION",
          "192": "IN_FAVOUR",
          "171": "DID_NOT_VOTE",
          "163": "DID_NOT_VOTE",
          "153": "DID_NOT_VOTE",
          "198": "IN_FAVOUR",
          "111": "AGAINST",
          "199": "IN_FAVOUR",
          "177": "IN_FAVOUR",
          "123": "IN_FAVOUR",
          "114": "DID_NOT_VOTE",
          "115": "IN_FAVOUR",
          "105": "AGAINST",
          "149": "IN_FAVOUR"
        },
        "title": "2nd Reading"
      }},
      "status": "FINISHED"
    },
    "2": {
      "date": "2021-03-28",
      "stage": "REPORT",
      "house": "COMMONS",
      "divisions": {"0": {
        "votes": {
          "191": "IN_FAVOUR",
          "192": "IN_FAVOUR",
          "171": "IN_FAVOUR",
          "163": "DID_NOT_VOTE",
          "153": "DID_NOT_VOTE",
          "198": "IN_FAVOUR",
          "111": "IN_FAVOUR",
          "199": "IN_FAVOUR",
          "177": "IN_FAVOUR",
          "123": "DID_NOT_VOTE",
          "114": "IN_FAVOUR",
          "115": "IN_FAVOUR",
          "105": "AGAINST",
          "149": "IN_FAVOUR"
        },
        "title": "Amendment A"
      }},
      "status": "FINISHED"
    },
    "3": {
      "date": "2021-04-04",
      "stage": "THIRD",
      "house": "COMMONS",
      "divisions": {},
      "status": "FINISHED"
    },
    "4": {
      "date": "2021-04-10",
      "stage": "FIRST",
      "house": "LORDS",
      "divisions": {},
      "status": "FINISHED"
    },
    "5": {
      "date": "2021-04-11",
      "stage": "SECOND",
      "house": "LORDS",
      "divisions": {"0": {
        "votes": {
          "156": "IN_FAVOUR",
          "124": "IN_FAVOUR",
          "169": "IN_FAVOUR",
          "125": "DID_NOT_VOTE",
          "203": "IN_FAVOUR",
          "174": "AGAINST",
          "263": "IN_FAVOUR"
        },
        "title": "2nd Reading"
      }},
      "status": "FINISHED"
    },
    "6": {
      "date": "2021-04-16",
      "stage": "REPORT",
      "house": "LORDS",
      "divisions": {"0": {
        "votes": {
          "156": "DID_NOT_VOTE",
          "124": "AGAINST",
          "169": "IN_FAVOUR",
          "125": "IN_FAVOUR",
          "203": "IN_FAVOUR",
          "174": "IN_FAVOUR",
          "263": "IN_FAVOUR"
        },
        "title": "Amendment A"
      }},
      "status": "FINISHED"
    },
    "7": {
      "date": "2021-04-18",
      "stage": "THIRD",
      "house": "LORDS",
      "divisions": {"0": {
        "votes": {
          "156": "DID_NOT_VOTE",
          "124": "IN_FAVOUR",
          "169": "IN_FAVOUR",
          "125": "DID_NOT_VOTE",
          "203": "IN_FAVOUR",
          "174": "AGAINST",
          "263": "IN_FAVOUR"
        },
        "title": "3rd Reading"
      }},
      "status": "FINISHED"
    },
    "8": {
      "date": "2021-04-29",
      "stage": "FIRST",
      "house": "COMMONS",
      "divisions": {},
      "status": "FINISHED"
    },
    "9": {
      "date": "2021-05-01",
      "stage": "SECOND",
      "house": "COMMONS",
      "divisions": {"0": {
        "votes": {
          "191": "DID_NOT_VOTE",
          "192": "IN_FAVOUR",
          "171": "IN_FAVOUR",
          "163": "IN_FAVOUR",
          "153": "IN_FAVOUR",
          "198": "IN_FAVOUR",
          "111": "AGAINST",
          "199": "IN_FAVOUR",
          "177": "IN_FAVOUR",
          "123": "IN_FAVOUR",
          "114": "AGAINST",
          "115": "IN_FAVOUR",
          "105": "AGAINST",
          "149": "IN_FAVOUR"
        },
        "title": "2nd Reading"
      }},
      "status": "FINISHED"
    },
    "10": {
      "date": "2021-05-08",
      "stage": "THIRD",
      "house": "COMMONS",
      "divisions": {"0": {
        "votes": {
          "191": "DID_NOT_VOTE",
          "171": "DID_NOT_VOTE",
          "163": "IN_FAVOUR",
          "153": "IN_FAVOUR",
          "198": "IN_FAVOUR",
          "111": "AGAINST",
          "199": "IN_FAVOUR",
          "177": "IN_FAVOUR",
          "123": "IN_FAVOUR",
          "124": "IN_FAVOUR",
          "125": "IN_FAVOUR",
          "114": "AGAINST",
          "115": "IN_FAVOUR",
          "105": "AGAINST",
          "149": "IN_FAVOUR"
        },
        "title": "3rd Reading"
      }},
      "status": "FINISHED"
    }
  },
  "id": "B071",
  "type": "BILL",
  "status": "SPENT",
  "longName": "Cornwall Bill"
}