{
  "name": "Northumbria Bill",
  "stages": {
    "0": {
      "date": "2021-05-13",
      "stage": "FIRST",
      "house": "COMMONS",
      "divisions": {},
      "status": "FINISHED"
    },
    "1": {
      "date": "2021-05-22",
      "stage": "SECOND",
      "house": "COMMONS",
      "divisions": {"0": {
        "votes": {
          "191": "AGAINST",
          "171": "DID_NOT_VOTE",
          "163": "IN_FAVOUR",
          "153": "AGAINST",
          "198": "DID_NOT_VOTE",
          "111": "AGAINST",
          "199": "AGAINST",
          "177": "IN_FAVOUR",
          "124": "IN_FAVOUR",
          "125": "AGAINST",
          "114": "AGAINST",
          "115": "DID_NOT_VOTE",
          "105": "AGAINST",
          "149": "AGAINST"
        },
        "title": "2nd Reading"
      }},
      "status": "FINISHED"
    }
  },
  "id": "B077",
  "type": "BILL",
  "status": "REJECTED",
  "longName": "Northumbria Bill"
}