{
  "name": "Against Corruption Bill",
  "stages": {
    "0": {
      "date": "2021-07-27",
      "stage": "FIRST",
      "house": "COMMONS",
      "divisions": {},
      "status": "FINISHED"
    },
    "1": {
      "date": "2021-08-13",
      "stage": "SECOND",
      "house": "COMMONS",
      "divisions": {"0": {
        "votes": {
          "261": "DID_NOT_VOTE",
          "163": "IN_FAVOUR",
          "120": "AGAINST",
          "198": "ABSTENTION",
          "199": "IN_FAVOUR",
          "177": "ABSTENTION",
          "111": "IN_FAVOUR",
          "189": "IN_FAVOUR",
          "169": "ABSTENTION",
          "125": "DID_NOT_VOTE",
          "203": "DID_NOT_VOTE",
          "149": "ABSTENTION",
          "105": "IN_FAVOUR",
          "206": "ABSTENTION"
        },
        "title": "2nd Reading"
      }},
      "status": "FINISHED"
    },
    "2": {
      "date": "2021-08-21",
      "stage": "THIRD",
      "house": "COMMONS",
      "divisions": {"0": {
        "votes": {
          "172": "AGAINST",
          "261": "DID_NOT_VOTE",
          "163": "AGAINST",
          "120": "AGAINST",
          "198": "AGAINST",
          "199": "AGAINST",
          "177": "AGAINST",
          "111": "IN_FAVOUR",
          "135": "IN_FAVOUR",
          "125": "DID_NOT_VOTE",
          "169": "AGAINST",
          "203": "AGAINST",
          "149": "AGAINST",
          "105": "IN_FAVOUR",
          "206": "AGAINST"
        },
        "title": "3rd Reading"
      }},
      "status": "FINISHED"
    }
  },
  "id": "B088",
  "type": "BILL",
  "status": "REJECTED",
  "longName": "Against Corruption Bill"
}