{
  "name": "Scotland (Amendment) Bill 2021",
  "stages": {
    "0": {
      "date": "2021-08-04",
      "stage": "FIRST",
      "house": "COMMONS",
      "divisions": {},
      "status": "FINISHED"
    },
    "1": {
      "date": "2021-08-06",
      "stage": "SECOND",
      "house": "COMMONS",
      "divisions": {"0": {
        "votes": {
          "261": "AGAINST",
          "163": "DID_NOT_VOTE",
          "120": "IN_FAVOUR",
          "198": "ABSTENTION",
          "199": "ABSTENTION",
          "177": "AGAINST",
          "111": "ABSTENTION",
          "189": "ABSTENTION",
          "169": "AGAINST",
          "125": "ABSTENTION",
          "203": "AGAINST",
          "149": "ABSTENTION",
          "105": "IN_FAVOUR",
          "206": "ABSTENTION"
        },
        "title": "2nd Reading"
      }},
      "status": "FINISHED"
    }
  },
  "id": "B090",
  "type": "BILL",
  "status": "REJECTED",
  "longName": "Scotland (Amendment) Bill 2021"
}