{
  "name": "Skyclad Rights Bill",
  "stages": {
    "0": {
      "date": "2020-08-22",
      "stage": "FIRST",
      "house": "LORDS",
      "divisions": {},
      "status": "FINISHED"
    },
    "1": {
      "date": "2020-08-30",
      "stage": "SECOND",
      "house": "LORDS",
      "divisions": {"0": {
        "votes": {
          "110": "IN_FAVOUR",
          "154": "ABSTENTION",
          "199": "AGAINST",
          "133": "AGAINST",
          "167": "AGAINST",
          "156": "AGAINST",
          "135": "IN_FAVOUR",
          "125": "AGAINST",
          "159": "AGAINST",
          "139": "IN_FAVOUR",
          "181": "IN_FAVOUR",
          "175": "ABSTENTION"
        },
        "title": "2nd Reading"
      }},
      "status": "FINISHED"
    }
  },
  "id": "LB015",
  "type": "BILL",
  "status": "REJECTED",
  "longName": "Skyclad Rights Bill"
}