{
  "name": "Health Reform Bill",
  "stages": {
    "0": {
      "date": "2020-09-18",
      "stage": "FIRST",
      "house": "LORDS",
      "divisions": {},
      "status": "FINISHED"
    },
    "1": {
      "date": "2020-09-19",
      "stage": "SECOND",
      "house": "LORDS",
      "divisions": {"0": {
        "votes": {
          "110": "ABSTENTION",
          "154": "ABSTENTION",
          "199": "IN_FAVOUR",
          "133": "DID_NOT_VOTE",
          "167": "IN_FAVOUR",
          "156": "DID_NOT_VOTE",
          "135": "IN_FAVOUR",
          "125": "DID_NOT_VOTE",
          "116": "DID_NOT_VOTE",
          "139": "IN_FAVOUR",
          "181": "ABSTENTION",
          "175": "AGAINST"
        },
        "title": "2nd Reading"
      }},
      "status": "FINISHED"
    },
    "2": {
      "date": "2020-11-06",
      "stage": "THIRD",
      "house": "LORDS",
      "divisions": {"0": {
        "votes": {
          "110": "DID_NOT_VOTE",
          "154": "ABSTENTION",
          "199": "AGAINST",
          "133": "AGAINST",
          "167": "IN_FAVOUR",
          "156": "AGAINST",
          "148": "AGAINST",
          "116": "AGAINST",
          "181": "IN_FAVOUR",
          "175": "AGAINST"
        },
        "title": "3rd Reading"
      }},
      "status": "FINISHED"
    }
  },
  "id": "LB018",
  "type": "BILL",
  "status": "REJECTED",
  "longName": "Health Reform Bill"
}