{
  "name": "Referendum on European Union Membership and Association Bill",
  "stages": {
    "11": {
      "date": "2021-07-26",
      "stage": "FIRST",
      "house": "COMMONS",
      "divisions": {},
      "status": "FINISHED"
    },
    "12": {
      "date": "2021-08-01",
      "stage": "SECOND",
      "house": "COMMONS",
      "divisions": {"0": {
        "votes": {
          "261": "IN_FAVOUR",
          "163": "AGAINST",
          "120": "AGAINST",
          "198": "AGAINST",
          "199": "AGAINST",
          "177": "AGAINST",
          "111": "ABSTENTION",
          "189": "IN_FAVOUR",
          "169": "IN_FAVOUR",
          "125": "DID_NOT_VOTE",
          "203": "AGAINST",
          "149": "AGAINST",
          "105": "DID_NOT_VOTE",
          "206": "AGAINST"
        },
        "title": "2nd Reading"
      }},
      "status": "FINISHED"
    },
    "0": {
      "date": "2021-05-13",
      "stage": "FIRST",
      "house": "LORDS",
      "divisions": {},
      "status": "FINISHED"
    },
    "1": {
      "date": "2021-05-16",
      "stage": "SECOND",
      "house": "LORDS",
      "divisions": {"0": {
        "votes": {
          "265": "DID_NOT_VOTE",
          "156": "IN_FAVOUR",
          "102": "IN_FAVOUR",
          "169": "IN_FAVOUR",
          "203": "IN_FAVOUR",
          "192": "IN_FAVOUR",
          "174": "DID_NOT_VOTE",
          "263": "IN_FAVOUR",
          "120": "DID_NOT_VOTE"
        },
        "title": "2nd Reading"
      }},
      "status": "FINISHED"
    },
    "2": {
      "date": "2021-05-21",
      "stage": "THIRD",
      "house": "LORDS",
      "divisions": {"0": {
        "votes": {
          "265": "DID_NOT_VOTE",
          "156": "DID_NOT_VOTE",
          "102": "DID_NOT_VOTE",
          "169": "IN_FAVOUR",
          "203": "IN_FAVOUR",
          "192": "AGAINST",
          "174": "IN_FAVOUR",
          "263": "DID_NOT_VOTE",
          "120": "AGAINST"
        },
        "title": "3rd Reading"
      }},
      "status": "FINISHED"
    },
    "3": {
      "date": "2021-05-23",
      "stage": "FIRST",
      "house": "COMMONS",
      "divisions": {},
      "status": "FINISHED"
    },
    "4": {
      "date": "2021-05-23",
      "stage": "SECOND",
      "house": "COMMONS",
      "divisions": {"0": {
        "votes": {
          "191": "IN_FAVOUR",
          "171": "DID_NOT_VOTE",
          "163": "AGAINST",
          "153": "IN_FAVOUR",
          "198": "DID_NOT_VOTE",
          "111": "IN_FAVOUR",
          "199": "AGAINST",
          "177": "AGAINST",
          "123": "DID_NOT_VOTE",
          "124": "IN_FAVOUR",
          "125": "DID_NOT_VOTE",
          "114": "IN_FAVOUR",
          "115": "DID_NOT_VOTE",
          "105": "IN_FAVOUR",
          "149": "AGAINST"
        },
        "title": "2nd Reading"
      }},
      "status": "FINISHED"
    },
    "5": {
      "date": "2021-05-30",
      "stage": "REPORT",
      "house": "COMMONS",
      "divisions": {
        "0": {
          "votes": {
            "191": "IN_FAVOUR",
            "171": "DID_NOT_VOTE",
            "163": "IN_FAVOUR",
            "153": "IN_FAVOUR",
            "198": "IN_FAVOUR",
            "111": "IN_FAVOUR",
            "199": "IN_FAVOUR",
            "177": "IN_FAVOUR",
            "123": "IN_FAVOUR",
            "124": "IN_FAVOUR",
            "125": "IN_FAVOUR",
            "114": "IN_FAVOUR",
            "115": "IN_FAVOUR",
            "105": "IN_FAVOUR",
            "149": "IN_FAVOUR"
          },
          "title": "Amendment A"
        },
        "1": {
          "votes": {
            "191": "IN_FAVOUR",
            "171": "DID_NOT_VOTE",
            "163": "IN_FAVOUR",
            "153": "IN_FAVOUR",
            "198": "IN_FAVOUR",
            "111": "IN_FAVOUR",
            "199": "IN_FAVOUR",
            "177": "IN_FAVOUR",
            "123": "IN_FAVOUR",
            "124": "IN_FAVOUR",
            "125": "IN_FAVOUR",
            "114": "IN_FAVOUR",
            "115": "IN_FAVOUR",
            "105": "IN_FAVOUR",
            "149": "IN_FAVOUR"
          },
          "title": "Amendment B"
        },
        "2": {
          "votes": {
            "191": "ABSTENTION",
            "171": "DID_NOT_VOTE",
            "163": "DID_NOT_VOTE",
            "153": "AGAINST",
            "198": "ABSTENTION",
            "111": "AGAINST",
            "199": "AGAINST",
            "177": "DID_NOT_VOTE",
            "123": "AGAINST",
            "124": "ABSTENTION",
            "125": "ABSTENTION",
            "114": "ABSTENTION",
            "115": "AGAINST",
            "105": "AGAINST",
            "149": "AGAINST"
          },
          "title": "Amendment C"
        },
        "3": {
          "votes": {
            "191": "IN_FAVOUR",
            "171": "DID_NOT_VOTE",
            "163": "IN_FAVOUR",
            "153": "IN_FAVOUR",
            "198": "IN_FAVOUR",
            "111": "IN_FAVOUR",
            "199": "IN_FAVOUR",
            "177": "IN_FAVOUR",
            "123": "IN_FAVOUR",
            "124": "IN_FAVOUR",
            "125": "IN_FAVOUR",
            "114": "IN_FAVOUR",
            "115": "IN_FAVOUR",
            "105": "DID_NOT_VOTE",
            "149": "IN_FAVOUR"
          },
          "title": "Amendment D"
        },
        "4": {
          "votes": {
            "191": "IN_FAVOUR",
            "171": "DID_NOT_VOTE",
            "163": "AGAINST",
            "153": "ABSTENTION",
            "198": "AGAINST",
            "111": "AGAINST",
            "199": "ABSTENTION",
            "177": "AGAINST",
            "123": "AGAINST",
            "124": "ABSTENTION",
            "125": "IN_FAVOUR",
            "114": "IN_FAVOUR",
            "115": "ABSTENTION",
            "105": "DID_NOT_VOTE",
            "149": "AGAINST"
          },
          "title": "Amendment E"
        },
        "5": {
          "votes": {
            "191": "IN_FAVOUR",
            "171": "DID_NOT_VOTE",
            "163": "IN_FAVOUR",
            "153": "AGAINST",
            "198": "IN_FAVOUR",
            "111": "IN_FAVOUR",
            "199": "AGAINST",
            "177": "AGAINST",
            "123": "AGAINST",
            "124": "IN_FAVOUR",
            "125": "IN_FAVOUR",
            "114": "IN_FAVOUR",
            "115": "AGAINST",
            "105": "IN_FAVOUR",
            "149": "AGAINST"
          },
          "title": "Amendment F"
        },
        "6": {
          "votes": {
            "191": "AGAINST",
            "171": "DID_NOT_VOTE",
            "163": "IN_FAVOUR",
            "153": "IN_FAVOUR",
            "198": "IN_FAVOUR",
            "111": "AGAINST",
            "199": "IN_FAVOUR",
            "177": "IN_FAVOUR",
            "123": "IN_FAVOUR",
            "124": "IN_FAVOUR",
            "125": "AGAINST",
            "114": "AGAINST",
            "115": "IN_FAVOUR",
            "105": "AGAINST",
            "149": "IN_FAVOUR"
          },
          "title": "Amendment G"
        },
        "7": {
          "votes": {
            "191": "IN_FAVOUR",
            "171": "DID_NOT_VOTE",
            "163": "AGAINST",
            "153": "AGAINST",
            "198": "AGAINST",
            "111": "IN_FAVOUR",
            "199": "AGAINST",
            "177": "AGAINST",
            "123": "IN_FAVOUR",
            "124": "IN_FAVOUR",
            "125": "IN_FAVOUR",
            "114": "IN_FAVOUR",
            "115": "AGAINST",
            "105": "IN_FAVOUR",
            "149": "IN_FAVOUR"
          },
          "title": "Amendment H"
        },
        "8": {
          "votes": {
            "191": "IN_FAVOUR",
            "171": "DID_NOT_VOTE",
            "163": "IN_FAVOUR",
            "153": "IN_FAVOUR",
            "198": "IN_FAVOUR",
            "111": "IN_FAVOUR",
            "199": "IN_FAVOUR",
            "177": "IN_FAVOUR",
            "123": "IN_FAVOUR",
            "124": "IN_FAVOUR",
            "125": "AGAINST",
            "114": "AGAINST",
            "115": "IN_FAVOUR",
            "105": "DID_NOT_VOTE",
            "149": "IN_FAVOUR"
          },
          "title": "Amendment I"
        }
      },
      "status": "FINISHED"
    },
    "6": {
      "date": "2021-06-06",
      "stage": "THIRD",
      "house": "COMMONS",
      "divisions": {"0": {
        "votes": {
          "191": "IN_FAVOUR",
          "163": "AGAINST",
          "153": "IN_FAVOUR",
          "198": "DID_NOT_VOTE",
          "111": "IN_FAVOUR",
          "199": "AGAINST",
          "177": "AGAINST",
          "123": "AGAINST",
          "124": "IN_FAVOUR",
          "125": "IN_FAVOUR",
          "114": "IN_FAVOUR",
          "115": "AGAINST",
          "105": "IN_FAVOUR",
          "149": "AGAINST"
        },
        "title": "3rd Reading"
      }},
      "status": "FINISHED"
    },
    "7": {
      "date": "2021-07-06",
      "stage": "FIRST",
      "house": "LORDS",
      "divisions": {},
      "status": "FINISHED"
    },
    "8": {
      "date": "2021-07-09",
      "stage": "SECOND",
      "house": "LORDS",
      "divisions": {"0": {
        "votes": {
          "154": "AGAINST",
          "110": "IN_FAVOUR",
          "118": "AGAINST",
          "192": "IN_FAVOUR",
          "156": "ABSTENTION",
          "174": "IN_FAVOUR"
        },
        "title": "2nd Reading"
      }},
      "status": "FINISHED"
    },
    "9": {
      "date": "2021-07-17",
      "stage": "REPORT",
      "house": "LORDS",
      "divisions": {"0": {
        "votes": {
          "154": "IN_FAVOUR",
          "110": "IN_FAVOUR",
          "156": "IN_FAVOUR",
          "118": "DID_NOT_VOTE",
          "172": "IN_FAVOUR",
          "174": "IN_FAVOUR",
          "263": "DID_NOT_VOTE"
        },
        "title": "Amendment A"
      }},
      "status": "FINISHED"
    },
    "10": {
      "date": "2021-07-23",
      "stage": "THIRD",
      "house": "LORDS",
      "divisions": {"0": {
        "votes": {
          "143": "IN_FAVOUR",
          "154": "ABSTENTION",
          "110": "IN_FAVOUR",
          "156": "IN_FAVOUR",
          "118": "DID_NOT_VOTE",
          "172": "IN_FAVOUR",
          "174": "DID_NOT_VOTE",
          "263": "DID_NOT_VOTE"
        },
        "title": "3rd Reading"
      }},
      "status": "FINISHED"
    }
  },
  "id": "LB023",
  "type": "BILL",
  "status": "REJECTED",
  "longName": "Referendum on European Union Membership and Association Bill"
}