{
  "name": "Biometrics Bill",
  "stages": {
    "0": {
      "date": "2021-09-30",
      "stage": "FIRST",
      "house": "LORDS",
      "divisions": {},
      "status": "FINISHED"
    },
    "1": {
      "date": "2021-10-02",
      "stage": "SECOND",
      "house": "LORDS",
      "divisions": {"0": {
        "votes": {
          "110": "IN_FAVOUR",
          "154": "IN_FAVOUR",
          "156": "IN_FAVOUR",
          "159": "AGAINST",
          "116": "IN_FAVOUR",
          "128": "AGAINST",
          "107": "IN_FAVOUR",
          "206": "IN_FAVOUR",
          "141": "IN_FAVOUR",
          "174": "IN_FAVOUR",
          "131": "IN_FAVOUR"
        },
        "title": "2nd Reading"
      }},
      "status": "FINISHED"
    },
    "2": {
      "date": "2021-10-15",
      "stage": "THIRD",
      "house": "LORDS",
      "divisions": {"0": {
        "votes": {
          "154": "IN_FAVOUR",
          "159": "AGAINST",
          "116": "ABSTENTION",
          "107": "IN_FAVOUR",
          "206": "IN_FAVOUR",
          "192": "IN_FAVOUR",
          "141": "IN_FAVOUR",
          "131": "IN_FAVOUR"
        },
        "title": "3rd Reading"
      }},
      "status": "FINISHED"
    },
    "3": {
      "date": "2021-10-21",
      "stage": "FIRST",
      "house": "COMMONS",
      "divisions": {},
      "status": "FINISHED"
    }
  },
  "id": "LB029",
  "type": "BILL",
  "status": "SECOND",
  "longName": "Biometrics Bill"
}