{
  "name": "Motion to Protect the Autonomy of Hong Kong",
  "stages": {
    "0": {
      "date": "2020-07-01",
      "stage": "SCHEDULED",
      "house": "LORDS",
      "divisions": {},
      "status": "FINISHED"
    },
    "1": {
      "date": "2020-07-05",
      "stage": "READING",
      "house": "LORDS",
      "divisions": {"0": {
        "votes": {
          "110": "IN_FAVOUR",
          "199": "DID_NOT_VOTE",
          "167": "IN_FAVOUR",
          "156": "IN_FAVOUR",
          "200": "IN_FAVOUR",
          "125": "IN_FAVOUR",
          "107": "IN_FAVOUR",
          "175": "IN_FAVOUR",
          "230": "IN_FAVOUR"
        },
        "title": "Reading"
      }},
      "status": "FINISHED"
    },
    "2": {
      "date": "2020-07-06",
      "stage": "PASSED",
      "house": "LORDS",
      "divisions": {},
      "status": "FINISHED"
    }
  },
  "id": "LM010",
  "type": "MOTION",
  "status": "UNKNOWN"
}