{
  "name": "Motion to Make Provisions for Wales to Participate in Eurovision Song Contest",
  "stages": {
    "0": {
      "date": "2021-05-23",
      "stage": "SCHEDULED",
      "house": "LORDS",
      "divisions": {},
      "status": "FINISHED"
    },
    "1": {
      "date": "2021-05-29",
      "stage": "READING",
      "house": "LORDS",
      "divisions": {"0": {
        "votes": {
          "156": "AGAINST",
          "102": "DID_NOT_VOTE",
          "169": "AGAINST",
          "203": "DID_NOT_VOTE",
          "206": "AGAINST",
          "192": "IN_FAVOUR",
          "174": "AGAINST",
          "263": "DID_NOT_VOTE",
          "120": "AGAINST"
        },
        "title": "Reading"
      }},
      "status": "FINISHED"
    }
  },
  "id": "LM024",
  "type": "MOTION",
  "status": "REJECTED"
}