{
  "name": "Motion to Condemn the Authotarian Tendecies in the House of Commons",
  "stages": {"0": {
    "date": "2021-10-21",
    "stage": "SCHEDULED",
    "house": "LORDS",
    "divisions": {},
    "status": "FINISHED"
  }},
  "id": "LM029",
  "type": "MOTION",
  "status": "UNKNOWN"
}