{
  "name": "Motion to recognise the 2014 Crimean status referendum",
  "stages": {
    "0": {
      "date": "2021-07-21",
      "stage": "SCHEDULED",
      "house": "COMMONS",
      "divisions": {},
      "status": "FINISHED"
    },
    "1": {
      "date": "2021-07-30",
      "stage": "READING",
      "house": "COMMONS",
      "divisions": {"0": {
        "votes": {
          "261": "AGAINST",
          "163": "DID_NOT_VOTE",
          "120": "AGAINST",
          "198": "AGAINST",
          "199": "AGAINST",
          "177": "AGAINST",
          "111": "AGAINST",
          "189": "AGAINST",
          "169": "AGAINST",
          "125": "AGAINST",
          "203": "AGAINST",
          "149": "AGAINST",
          "105": "AGAINST",
          "206": "AGAINST"
        },
        "title": "Reading"
      }},
      "status": "FINISHED"
    }
  },
  "id": "M066",
  "type": "MOTION",
  "status": "REJECTED"
}