{
  "img": "https://upload.wikimedia.org/wikipedia/commons/4/48/Ministro_Mart%C3%ADn_M._Guzm%C3%A1n.jpg",
  "name": "Dominik Katopodis",
  "id": 191,
  "user": "580156132321132585",
  "party": {
    "2021-07-07T00:00:00": 0,
    "default": 0,
    "2020-12-26T00:00:00": 2
  }
}