{
  "name": "Wales",
  "holder": {
    "2019-03-24": "Alwyn Flang",
    "2019-04-15": "Vacant",
    "2019-04-22": "Dafydd Llwyd",
    "2020-01-03": "Llywelyn ap Iorwerth",
    "2021-03-07": "Hywel ap Iorwerth",
    "2021-05-08": "Oswald Philadelphus",
    "2021-06-20": "Vacant",
    "2021-06-27": "John Bell"
  }
}