{
  "img": "https://s.yimg.com/ny/api/res/1.2/Fu9SlO72_kJWNwmrxPtvxw--/YXBwaWQ9aGlnaGxhbmRlcjt3PTk2MDtoPTExNTEuMTAwNzAyNTc2MTEyMw--/https://s.yimg.com/uu/api/res/1.2/7ecKXiEPTz.Dd8eNc9zQ0w--~B/aD0xMDI0O3c9ODU0O2FwcGlkPXl0YWNoeW9u/https://media.zenfs.com/en/refinery29_778/127da0d8c526429c5d0c89d576159622",
  "name": "Klaus von Klappern",
  "id": 143,
  "user": "233931911418871808",
  "party": {
    "default": 0,
    "2021-07-21T00:00:00": 22
  }
}