{
  "img": "http://www.newdesignfile.com/postpic/2014/07/generic-user-icon-windows_352871.png",
  "name": "John Muhlenberg",
  "id": 218,
  "user": "233931911418871808",
  "party": {
    "default": 0,
    "2019-03-29T00:00:00": 1
  }
}