{
  "img": "http://www.newdesignfile.com/postpic/2014/07/generic-user-icon-windows_352871.png",
  "name": "Leighton Lovelace",
  "id": 230,
  "user": "233931911418871808",
  "party": {
    "default": 0,
    "2020-07-03T00:00:00": 1
  }
}