{
  "img": "http://www.newdesignfile.com/postpic/2014/07/generic-user-icon-windows_352871.png",
  "name": "David Doughty",
  "id": 177,
  "user": "512047507572916244",
  "party": {
    "default": 0,
    "2021-01-08T00:00:00": 3
  }
}